<svg width="46" height="46" viewBox="0 0 46 46" fill="none" xmlns="http://www.w3.org/2000/svg">
<circle cx="23" cy="23" r="23" fill="#173A72"/>
<path d="M13.9659 28.8129C13.4767 28.8129 13.0262 28.8148 12.5756 28.8129C11.6285 28.8074 11.0014 28.1913 11.0014 27.2498C10.9995 23.3584 10.9995 19.4651 11.0014 15.5738C11.0014 14.6266 11.623 14.0014 12.5664 14.0014C18.4347 13.9995 24.3049 13.9995 30.1751 14.0014C31.1222 14.0014 31.742 14.623 31.7475 15.5664C31.7493 16.0188 31.7475 16.4694 31.7475 16.9659C32.1833 16.9659 32.6026 16.9659 33.0201 16.9659C34.1364 16.9659 34.7138 17.5434 34.7138 18.6578C34.7138 22.4664 34.7138 26.2769 34.7138 30.0855C34.7138 31.2184 34.1401 31.7885 32.9999 31.7866C27.2014 31.783 21.4048 31.7811 15.6063 31.7775C14.5617 31.7775 13.9659 31.1779 13.9659 30.1242C13.9659 29.7049 13.9659 29.2837 13.9659 28.8129ZM21.3882 14.9742C18.4752 14.9742 15.5622 14.9742 12.6492 14.9742C12.1379 14.9742 11.9742 15.1324 11.9742 15.6289C11.9742 19.478 11.9742 23.3271 11.9742 27.178C11.9742 27.6801 12.1342 27.8401 12.64 27.8401C18.4568 27.8382 24.2718 27.8346 30.0887 27.8309C30.6091 27.8309 30.7636 27.6727 30.7636 27.1449C30.7673 23.3271 30.771 19.5074 30.7728 15.6896C30.7728 15.1213 30.6294 14.9761 30.0648 14.9761C27.1738 14.9742 24.281 14.9742 21.3882 14.9742ZM14.9406 28.8129C14.9406 29.2451 14.9406 29.635 14.9406 30.0249C14.9406 30.6832 15.0601 30.8046 15.7056 30.8046C21.4728 30.8046 27.24 30.8046 33.0054 30.8046C33.6067 30.8046 33.7392 30.6685 33.7392 30.0543C33.7392 27.0475 33.7392 24.0425 33.7392 21.0357C33.7392 20.1916 33.741 19.3474 33.7373 18.5033C33.7355 18.1741 33.57 17.9571 33.2812 17.9479C32.781 17.9295 32.279 17.9424 31.7456 17.9424C31.7456 18.0932 31.7456 18.2128 31.7456 18.3341C31.7493 21.2987 31.753 24.265 31.7548 27.2295C31.7548 28.2005 31.1406 28.8185 30.177 28.8221C29.662 28.824 29.1471 28.8148 28.6322 28.8148C24.2038 28.8148 19.7754 28.8148 15.3488 28.8148C15.2275 28.8129 15.1061 28.8129 14.9406 28.8129Z" fill="white" stroke="white" stroke-width="0.3"/>
<path d="M16.9192 21.4144C18.7692 21.4108 20.3306 22.9151 20.3747 24.7449C20.3857 25.1661 20.0952 25.4401 19.7549 25.3242C19.492 25.2359 19.4147 25.0318 19.4019 24.7707C19.343 23.5808 18.5338 22.6558 17.3624 22.4277C15.9518 22.1519 14.5542 23.2277 14.453 24.6658C14.4493 24.7265 14.4512 24.7891 14.4457 24.8516C14.4181 25.1495 14.2213 25.35 13.9602 25.35C13.6843 25.35 13.471 25.1293 13.4783 24.8203C13.5004 23.9082 13.8241 23.1174 14.4604 22.459C15.093 21.7988 16.0033 21.4163 16.9192 21.4144Z" fill="white" stroke="white" stroke-width="0.3"/>
<path d="M16.9357 16.4712C18.0096 16.4749 18.8942 17.3668 18.8942 18.4426C18.8924 19.5185 18.0023 20.4086 16.9301 20.4086C15.8396 20.4086 14.9477 19.5111 14.9569 18.4206C14.9624 17.3484 15.858 16.4675 16.9357 16.4712ZM16.9338 19.4357C17.4855 19.4302 17.9269 18.9778 17.9177 18.4224C17.9085 17.8725 17.4524 17.4349 16.897 17.4459C16.36 17.4569 15.926 17.902 15.9279 18.4426C15.9315 18.9962 16.3803 19.4394 16.9338 19.4357Z" fill="white" stroke="white" stroke-width="0.3"/>
<path d="M25.6104 24.3643C24.5934 24.3643 23.5746 24.3643 22.5576 24.3643C22.4657 24.3643 22.37 24.3716 22.2818 24.3514C22.0335 24.2926 21.8808 24.1307 21.8845 23.8714C21.8882 23.614 22.0427 23.4558 22.2928 23.4006C22.3719 23.3841 22.4565 23.3896 22.5392 23.3896C24.5548 23.3859 26.5685 23.3822 28.5841 23.3804C28.6466 23.3804 28.7073 23.3786 28.7699 23.3822C29.0825 23.4006 29.2885 23.6029 29.2848 23.8825C29.2811 24.1602 29.0733 24.368 28.7588 24.3698C27.9975 24.3753 27.2379 24.3661 26.4766 24.3643C26.186 24.3643 25.8973 24.3643 25.6104 24.3643Z" fill="white" stroke="white" stroke-width="0.3"/>
<path d="M25.5956 20.4251C26.6145 20.4251 27.6314 20.4233 28.6503 20.4251C29.0438 20.4251 29.2682 20.6054 29.2719 20.9125C29.2755 21.2361 29.0457 21.4035 28.6319 21.4017C26.688 21.398 24.7442 21.398 22.8003 21.398C22.7084 21.398 22.6146 21.398 22.5226 21.398C22.1088 21.3943 21.8716 21.2122 21.879 20.9014C21.8863 20.5998 22.1143 20.4251 22.5097 20.4251C23.5396 20.4251 24.5676 20.4251 25.5956 20.4251Z" fill="white" stroke="white" stroke-width="0.3"/>
<path d="M25.5755 17.4606C26.6164 17.4606 27.6554 17.4587 28.6963 17.4624C29.0898 17.4643 29.3473 17.7364 29.259 18.0546C29.1708 18.3672 28.9317 18.4389 28.6338 18.4371C26.883 18.4316 25.1323 18.4353 23.3815 18.4353C23.0615 18.4353 22.7434 18.4408 22.4234 18.4334C22.0887 18.4261 21.868 18.2164 21.8772 17.9332C21.8864 17.6592 22.0997 17.4661 22.4234 17.4643C23.4753 17.4569 24.5254 17.4606 25.5755 17.4606Z" fill="white" stroke="white" stroke-width="0.3"/>
</svg>
